…
    ```{r}
    write_rds(challenge, "challenge.rds")
    read_rds("challenge.rds")
    ```
  
2.  feather paketi farklı programlama dilleri arasında
    paylaşılabilecek bir hızlı binary dosya formatı uygular:
    
    ```{r, eval = FALSE}
    library(feather)
    write_feather(challenge, "challenge.feather")
    read_feather("challenge.feather")
    #> # A tibble: 2,000 x 2
    #>       x      y
    #>   <dbl> <date>
    #> 1   404   <NA>
    #> 2  4172   <NA>
    #> 3  3004   <NA>
    #> 4   787   <NA>
    #> 5    37   <NA>
    #> 6  2332   <NA>
    #> # ... with 1,994 more rows
    ```
…
