…
In addition to tidyverse, we will also use the palmerpenguins package, which includes the penguins dataset containing body measurements for penguins on three islands in the Palmer Archipelago.

library(palmerpenguins)

First steps

Let’s use our first graph to answer a question: Do penguins with longer flippers weigh more or less than penguins with shorter flippers? You probably already have an answer, but try to make your answer precise. What does the relationship between flipper length and body mass look like? Is it positive? Negative? Linear? Nonlinear? Does the relationship vary by the species of the penguin? And how about by the island where the penguin lives.

Thepenguins data frame

You can test your answer with the penguins data frame found in palmerpenguins (a.k.a. palmerpenguins::penguins). A data frame is a rectangular collection of variables (in the columns) and observations (in the rows). penguins contains 344 observations collected and made available by Dr. Kristen Gorman and the Palmer Station, Antarctica LTERHorst AM, Hill AP, Gorman KB (2020). palmerpenguins: Palmer Archipelago (Antarctica) penguin data. R package version 0.1.0. https://allisonhorst.github.io/palmerpenguins/. doi: 10.5281/zenodo.3960218..

penguins
#> # A tibble: 344 × 8
#>   species island   bill_length_mm bill_depth_mm flipper_length_mm body_mass_g
#>   <fct>   <fct>             <dbl>         <dbl>             <int>       <int>
#> 1 Adelie  Torgers…           39.1          18.7               181        3750
#> 2 Adelie  Torgers…           39.5          17.4               186        3800
#> 3 Adelie  Torgers…           40.3          18                 195        3250
#> 4 Adelie  Torgers…           NA            NA                  NA          NA
#> 5 Adelie  Torgers…           36.7          19.3               193        3450
#> 6 Adelie  Torgers…           39.3          20.6               190        3650
#> # … with 338 more rows, and 2 more variables: sex <fct>, year <int>
…
A histogram divides the x-axis into equally spaced bins and then uses the height of a bar to display the number of observations that fall in each bin. In the graph above, the tallest bar shows that 39 observations have a body_mass_g value between 3,500 and 3,700 grams, which are the left and right edges of the bar.

penguins |>
  count(cut_width(body_mass_g, 200))
#> # A tibble: 19 × 2
#>   `cut_width(body_mass_g, 200)`     n
#>   <fct>                         <int>
#> 1 [2.7e+03,2.9e+03]                 7
#> 2 (2.9e+03,3.1e+03]                10
#> 3 (3.1e+03,3.3e+03]                23
#> 4 (3.3e+03,3.5e+03]                38
#> 5 (3.5e+03,3.7e+03]                39
#> 6 (3.7e+03,3.9e+03]                37
#> # … with 13 more rows
…
