…
Take careful note of the conflicts message that’s printed when you load the tidyverse. It tells you that dplyr overwrites some functions in base R. If you want to use the base version of these functions after loading dplyr, you’ll need to use their full names: stats::filter() and stats::lag(). So far we’ve mostly ignored which package a function comes from because most of the time it doesn’t matter. However, knowing the package can help you find help and find related functions, so when we need to be precise about which function a package comes from, we’ll use the same syntax as R: packagename::functionname().

nycflights13

To explore the basic dplyr verbs, we’re going to use nycflights13::flights. This dataset contains all 336,776 flights that departed from New York City in 2013. The data comes from the US Bureau of Transportation Statistics, and is documented in ?flights.

flights
#> # A tibble: 336,776 × 19
#>    year month   day dep_time sched_…¹ dep_d…² arr_t…³ sched…⁴ arr_d…⁵ carrier
#>   <int> <int> <int>    <int>    <int>   <dbl>   <int>   <int>   <dbl> <chr>  
#> 1  2013     1     1      517      515       2     830     819      11 UA     
#> 2  2013     1     1      533      529       4     850     830      20 UA     
#> 3  2013     1     1      542      540       2     923     850      33 AA     
#> 4  2013     1     1      544      545      -1    1004    1022     -18 B6     
#> 5  2013     1     1      554      600      -6     812     837     -25 DL     
#> 6  2013     1     1      554      558      -4     740     728      12 UA     
#> # … with 336,770 more rows, 9 more variables: flight <int>, tailnum <chr>,
#> #   origin <chr>, dest <chr>, air_time <dbl>, distance <dbl>, hour <dbl>,
#> #   minute <dbl>, time_hour <dttm>, and abbreviated variable names
#> #   ¹​sched_dep_time, ²​dep_delay, ³​arr_time, ⁴​sched_arr_time, ⁵​arr_delay
…
The code starts with the flights dataset, then filters it, then groups it, then summarizes it. We’ll come back to the pipe and its alternatives in #sec-pipes.

dplyr’s verbs are organised into four groups based on what they operate on: rows, columns, groups, or tables. In the following sections you’ll learn the most important verbs for rows, columns, and groups, then we’ll come back to verb that work on tables in #chp-joins. Let’s dive in!

Rows

The most important verbs that operate on rows are filter(), which changes which rows are present without changing their order, and arrange(), which changes the order of the rows without changing which are present. Both functions only affect the rows, and the columns are left unchanged.

filter()

filter() allows you to keep rows based on the values of the columnsLater, you’ll learn about the slice_*() family which allows you to choose rows based on their positions.. The first argument is the data frame. The second and subsequent arguments are the conditions that must be true to keep the row. For example, we could find all flights that arrived more than 120 minutes (two hours) late:

flights |> 
  filter(arr_delay > 120)
#> # A tibble: 10,034 × 19
#>    year month   day dep_time sched_…¹ dep_d…² arr_t…³ sched…⁴ arr_d…⁵ carrier
#>   <int> <int> <int>    <int>    <int>   <dbl>   <int>   <int>   <dbl> <chr>  
#> 1  2013     1     1      811      630     101    1047     830     137 MQ     
#> 2  2013     1     1      848     1835     853    1001    1950     851 MQ     
#> 3  2013     1     1      957      733     144    1056     853     123 UA     
#> 4  2013     1     1     1114      900     134    1447    1222     145 UA     
#> 5  2013     1     1     1505     1310     115    1638    1431     127 EV     
#> 6  2013     1     1     1525     1340     105    1831    1626     125 B6     
#> # … with 10,028 more rows, 9 more variables: flight <int>, tailnum <chr>,
#> #   origin <chr>, dest <chr>, air_time <dbl>, distance <dbl>, hour <dbl>,
#> #   minute <dbl>, time_hour <dttm>, and abbreviated variable names
#> #   ¹​sched_dep_time, ²​dep_delay, ³​arr_time, ⁴​sched_arr_time, ⁵​arr_delay

As well as > (greater than), you can use >= (greater than or equal to), < (less than), <= (less than or equal to), == (equal to), and != (not equal to). You can also use & (and) or | (or) to combine multiple conditions:

# Flights that departed on January 1
flights |> 
  filter(month == 1 & day == 1)
#> # A tibble: 842 × 19
#>    year month   day dep_time sched_…¹ dep_d…² arr_t…³ sched…⁴ arr_d…⁵ carrier
#>   <int> <int> <int>    <int>    <int>   <dbl>   <int>   <int>   <dbl> <chr>  
#> 1  2013     1     1      517      515       2     830     819      11 UA     
#> 2  2013     1     1      533      529       4     850     830      20 UA     
#> 3  2013     1     1      542      540       2     923     850      33 AA     
#> 4  2013     1     1      544      545      -1    1004    1022     -18 B6     
#> 5  2013     1     1      554      600      -6     812     837     -25 DL     
#> 6  2013     1     1      554      558      -4     740     728      12 UA     
#> # … with 836 more rows, 9 more variables: flight <int>, tailnum <chr>,
#> #   origin <chr>, dest <chr>, air_time <dbl>, distance <dbl>, hour <dbl>,
#> #   minute <dbl>, time_hour <dttm>, and abbreviated variable names
#> #   ¹​sched_dep_time, ²​dep_delay, ³​arr_time, ⁴​sched_arr_time, ⁵​arr_delay

# Flights that departed in January or February
flights |> 
  filter(month == 1 | month == 2)
#> # A tibble: 51,955 × 19
#>    year month   day dep_time sched_…¹ dep_d…² arr_t…³ sched…⁴ arr_d…⁵ carrier
#>   <int> <int> <int>    <int>    <int>   <dbl>   <int>   <int>   <dbl> <chr>  
#> 1  2013     1     1      517      515       2     830     819      11 UA     
#> 2  2013     1     1      533      529       4     850     830      20 UA     
#> 3  2013     1     1      542      540       2     923     850      33 AA     
#> 4  2013     1     1      544      545      -1    1004    1022     -18 B6     
#> 5  2013     1     1      554      600      -6     812     837     -25 DL     
#> 6  2013     1     1      554      558      -4     740     728      12 UA     
#> # … with 51,949 more rows, 9 more variables: flight <int>, tailnum <chr>,
#> #   origin <chr>, dest <chr>, air_time <dbl>, distance <dbl>, hour <dbl>,
#> #   minute <dbl>, time_hour <dttm>, and abbreviated variable names
#> #   ¹​sched_dep_time, ²​dep_delay, ³​arr_time, ⁴​sched_arr_time, ⁵​arr_delay

There’s a useful shortcut when you’re combining | and ==: %in%. It keeps rows where the variable equals one of the values on the right:

# A shorter way to select flights that departed in January or February
flights |> 
  filter(month %in% c(1, 2))
#> # A tibble: 51,955 × 19
#>    year month   day dep_time sched_…¹ dep_d…² arr_t…³ sched…⁴ arr_d…⁵ carrier
#>   <int> <int> <int>    <int>    <int>   <dbl>   <int>   <int>   <dbl> <chr>  
#> 1  2013     1     1      517      515       2     830     819      11 UA     
#> 2  2013     1     1      533      529       4     850     830      20 UA     
#> 3  2013     1     1      542      540       2     923     850      33 AA     
#> 4  2013     1     1      544      545      -1    1004    1022     -18 B6     
#> 5  2013     1     1      554      600      -6     812     837     -25 DL     
#> 6  2013     1     1      554      558      -4     740     728      12 UA     
#> # … with 51,949 more rows, 9 more variables: flight <int>, tailnum <chr>,
#> #   origin <chr>, dest <chr>, air_time <dbl>, distance <dbl>, hour <dbl>,
#> #   minute <dbl>, time_hour <dttm>, and abbreviated variable names
#> #   ¹​sched_dep_time, ²​dep_delay, ³​arr_time, ⁴​sched_arr_time, ⁵​arr_delay
…
Another mistakes is you write “or” statements like you would in English:

flights |> 
  filter(month == 1 | 2)

This works, in the sense that it doesn’t throw an error, but it doesn’t do what you want. We’ll come back to what it does and why in #sec-boolean-operations.

arrange()

arrange() changes the order of the rows based on the value of the columns. It takes a data frame and a set of column names (or more complicated expressions) to order by. If you provide more than one column name, each additional column will be used to break ties in the values of preceding columns. For example, the following code sorts by the departure time, which is spread over four columns.

flights |> 
  arrange(year, month, day, dep_time)
#> # A tibble: 336,776 × 19
#>    year month   day dep_time sched_…¹ dep_d…² arr_t…³ sched…⁴ arr_d…⁵ carrier
#>   <int> <int> <int>    <int>    <int>   <dbl>   <int>   <int>   <dbl> <chr>  
#> 1  2013     1     1      517      515       2     830     819      11 UA     
#> 2  2013     1     1      533      529       4     850     830      20 UA     
#> 3  2013     1     1      542      540       2     923     850      33 AA     
#> 4  2013     1     1      544      545      -1    1004    1022     -18 B6     
#> 5  2013     1     1      554      600      -6     812     837     -25 DL     
#> 6  2013     1     1      554      558      -4     740     728      12 UA     
#> # … with 336,770 more rows, 9 more variables: flight <int>, tailnum <chr>,
#> #   origin <chr>, dest <chr>, air_time <dbl>, distance <dbl>, hour <dbl>,
#> #   minute <dbl>, time_hour <dttm>, and abbreviated variable names
#> #   ¹​sched_dep_time, ²​dep_delay, ³​arr_time, ⁴​sched_arr_time, ⁵​arr_delay

You can use desc() to re-order by a column in descending order. For example, this code shows the most delayed flights:

flights |> 
  arrange(desc(dep_delay))
#> # A tibble: 336,776 × 19
#>    year month   day dep_time sched_…¹ dep_d…² arr_t…³ sched…⁴ arr_d…⁵ carrier
#>   <int> <int> <int>    <int>    <int>   <dbl>   <int>   <int>   <dbl> <chr>  
#> 1  2013     1     9      641      900    1301    1242    1530    1272 HA     
#> 2  2013     6    15     1432     1935    1137    1607    2120    1127 MQ     
#> 3  2013     1    10     1121     1635    1126    1239    1810    1109 MQ     
#> 4  2013     9    20     1139     1845    1014    1457    2210    1007 AA     
#> 5  2013     7    22      845     1600    1005    1044    1815     989 MQ     
#> 6  2013     4    10     1100     1900     960    1342    2211     931 DL     
#> # … with 336,770 more rows, 9 more variables: flight <int>, tailnum <chr>,
#> #   origin <chr>, dest <chr>, air_time <dbl>, distance <dbl>, hour <dbl>,
#> #   minute <dbl>, time_hour <dttm>, and abbreviated variable names
#> #   ¹​sched_dep_time, ²​dep_delay, ³​arr_time, ⁴​sched_arr_time, ⁵​arr_delay

You can combine arrange() and filter() to solve more complex problems. For example, we could look for the flights that were most delayed on arrival that left on roughly on time:

flights |> 
  filter(dep_delay <= 10 & dep_delay >= -10) |> 
  arrange(desc(arr_delay))
#> # A tibble: 239,109 × 19
#>    year month   day dep_time sched_…¹ dep_d…² arr_t…³ sched…⁴ arr_d…⁵ carrier
#>   <int> <int> <int>    <int>    <int>   <dbl>   <int>   <int>   <dbl> <chr>  
#> 1  2013    11     1      658      700      -2    1329    1015     194 VX     
#> 2  2013     4    18      558      600      -2    1149     850     179 AA     
#> 3  2013     7     7     1659     1700      -1    2050    1823     147 US     
#> 4  2013     7    22     1606     1615      -9    2056    1831     145 DL     
#> 5  2013     9    19      648      641       7    1035     810     145 UA     
#> 6  2013     4    18      655      700      -5    1213     950     143 AA     
#> # … with 239,103 more rows, 9 more variables: flight <int>, tailnum <chr>,
#> #   origin <chr>, dest <chr>, air_time <dbl>, distance <dbl>, hour <dbl>,
#> #   minute <dbl>, time_hour <dttm>, and abbreviated variable names
#> #   ¹​sched_dep_time, ²​dep_delay, ³​arr_time, ⁴​sched_arr_time, ⁵​arr_delay
…
Columns

There are four important verbs that affect the columns without changing the rows: mutate(), select(), rename(), and relocate(). mutate() creates new columns that are functions of the existing columns; select(), rename(), and relocate() change which columns are present, their names, or their positions.

mutate()

The job of mutate() is to add new columns that are calculated from the existing columns. In the transform chapters, you’ll learn a large set of functions that you can use to manipulate different types of variables. For now, we’ll stick with basic algebra, which allows us to compute the gain, how much time a delayed flight made up in the air, and the speed in miles per hour:

flights |> 
  mutate(
    gain = dep_delay - arr_delay,
    speed = distance / air_time * 60
  )
#> # A tibble: 336,776 × 21
#>    year month   day dep_time sched_…¹ dep_d…² arr_t…³ sched…⁴ arr_d…⁵ carrier
#>   <int> <int> <int>    <int>    <int>   <dbl>   <int>   <int>   <dbl> <chr>  
#> 1  2013     1     1      517      515       2     830     819      11 UA     
#> 2  2013     1     1      533      529       4     850     830      20 UA     
#> 3  2013     1     1      542      540       2     923     850      33 AA     
#> 4  2013     1     1      544      545      -1    1004    1022     -18 B6     
#> 5  2013     1     1      554      600      -6     812     837     -25 DL     
#> 6  2013     1     1      554      558      -4     740     728      12 UA     
#> # … with 336,770 more rows, 11 more variables: flight <int>, tailnum <chr>,
#> #   origin <chr>, dest <chr>, air_time <dbl>, distance <dbl>, hour <dbl>,
#> #   minute <dbl>, time_hour <dttm>, gain <dbl>, speed <dbl>, and abbreviated
#> #   variable names ¹​sched_dep_time, ²​dep_delay, ³​arr_time, ⁴​sched_arr_time,
#> #   ⁵​arr_delay

By default, mutate() adds new columns on the right hand side of your dataset, which makes it difficult to see what’s happening here. We can use the .before argument to instead add the variables to the left hand sideRemember that in RStudio, the easiest way to see a dataset with many columns is View().:

flights |> 
  mutate(
    gain = dep_delay - arr_delay,
    speed = distance / air_time * 60,
    .before = 1
  )
#> # A tibble: 336,776 × 21
#>    gain speed  year month   day dep_time sched_dep_…¹ dep_d…² arr_t…³ sched…⁴
#>   <dbl> <dbl> <int> <int> <int>    <int>        <int>   <dbl>   <int>   <int>
#> 1    -9  370.  2013     1     1      517          515       2     830     819
#> 2   -16  374.  2013     1     1      533          529       4     850     830
#> 3   -31  408.  2013     1     1      542          540       2     923     850
#> 4    17  517.  2013     1     1      544          545      -1    1004    1022
#> 5    19  394.  2013     1     1      554          600      -6     812     837
#> 6   -16  288.  2013     1     1      554          558      -4     740     728
#> # … with 336,770 more rows, 11 more variables: arr_delay <dbl>,
#> #   carrier <chr>, flight <int>, tailnum <chr>, origin <chr>, dest <chr>,
#> #   air_time <dbl>, distance <dbl>, hour <dbl>, minute <dbl>,
#> #   time_hour <dttm>, and abbreviated variable names ¹​sched_dep_time,
#> #   ²​dep_delay, ³​arr_time, ⁴​sched_arr_time

The . is a sign that .before is an argument to the function, not the name of a new variable. You can also use .after to add after a variable, and in both .before and .after you can the name of a variable name instead of a position. For example, we could add the new variables after day:

flights |> 
  mutate(
    gain = dep_delay - arr_delay,
    speed = distance / air_time * 60,
    .after = day
  )
#> # A tibble: 336,776 × 21
#>    year month   day  gain speed dep_time sched_dep_…¹ dep_d…² arr_t…³ sched…⁴
#>   <int> <int> <int> <dbl> <dbl>    <int>        <int>   <dbl>   <int>   <int>
#> 1  2013     1     1    -9  370.      517          515       2     830     819
#> 2  2013     1     1   -16  374.      533          529       4     850     830
#> 3  2013     1     1   -31  408.      542          540       2     923     850
#> 4  2013     1     1    17  517.      544          545      -1    1004    1022
#> 5  2013     1     1    19  394.      554          600      -6     812     837
#> 6  2013     1     1   -16  288.      554          558      -4     740     728
#> # … with 336,770 more rows, 11 more variables: arr_delay <dbl>,
#> #   carrier <chr>, flight <int>, tailnum <chr>, origin <chr>, dest <chr>,
#> #   air_time <dbl>, distance <dbl>, hour <dbl>, minute <dbl>,
#> #   time_hour <dttm>, and abbreviated variable names ¹​sched_dep_time,
#> #   ²​dep_delay, ³​arr_time, ⁴​sched_arr_time

Alternatively, you can control which variables are kept with the .keep argument. A particularly useful argument is "used" which allows you to see the inputs and outputs from your calculations:

flights |> 
  mutate(,
    gain = dep_delay - arr_delay,
    hours = air_time / 60,
    gain_per_hour = gain / hours,
    .keep = "used"
  )
#> # A tibble: 336,776 × 6
#>   dep_delay arr_delay air_time  gain hours gain_per_hour
#>       <dbl>     <dbl>    <dbl> <dbl> <dbl>         <dbl>
#> 1         2        11      227    -9  3.78         -2.38
#> 2         4        20      227   -16  3.78         -4.23
#> 3         2        33      160   -31  2.67        -11.6 
#> 4        -1       -18      183    17  3.05          5.57
#> 5        -6       -25      116    19  1.93          9.83
#> 6        -4        12      150   -16  2.5          -6.4 
#> # … with 336,770 more rows

select()

It’s not uncommon to get datasets with hundreds or even thousands of variables. In this situation, the first challenge is often just focusing on the variables you’re interested in. select() allows you to rapidly zoom in on a useful subset using operations based on the names of the variables. select() is not terribly useful with the flights data because we only have 19 variables, but you can still get the general idea of how it works:

# Select columns by name
flights |> 
  select(year, month, day)
#> # A tibble: 336,776 × 3
#>    year month   day
#>   <int> <int> <int>
#> 1  2013     1     1
#> 2  2013     1     1
#> 3  2013     1     1
#> 4  2013     1     1
#> 5  2013     1     1
#> 6  2013     1     1
#> # … with 336,770 more rows

# Select all columns between year and day (inclusive)
flights |> 
  select(year:day)
#> # A tibble: 336,776 × 3
#>    year month   day
#>   <int> <int> <int>
#> 1  2013     1     1
#> 2  2013     1     1
#> 3  2013     1     1
#> 4  2013     1     1
#> 5  2013     1     1
#> 6  2013     1     1
#> # … with 336,770 more rows

# Select all columns except those from year to day (inclusive)
flights |> 
  select(!year:day)
#> # A tibble: 336,776 × 16
#>   dep_time sched_dep…¹ dep_d…² arr_t…³ sched…⁴ arr_d…⁵ carrier flight tailnum
#>      <int>       <int>   <dbl>   <int>   <int>   <dbl> <chr>    <int> <chr>  
#> 1      517         515       2     830     819      11 UA        1545 N14228 
#> 2      533         529       4     850     830      20 UA        1714 N24211 
#> 3      542         540       2     923     850      33 AA        1141 N619AA 
#> 4      544         545      -1    1004    1022     -18 B6         725 N804JB 
#> 5      554         600      -6     812     837     -25 DL         461 N668DN 
#> 6      554         558      -4     740     728      12 UA        1696 N39463 
#> # … with 336,770 more rows, 7 more variables: origin <chr>, dest <chr>,
#> #   air_time <dbl>, distance <dbl>, hour <dbl>, minute <dbl>,
#> #   time_hour <dttm>, and abbreviated variable names ¹​sched_dep_time,
#> #   ²​dep_delay, ³​arr_time, ⁴​sched_arr_time, ⁵​arr_delay

# Select all columns that are characters
flights |> 
  select(where(is.character))
#> # A tibble: 336,776 × 4
#>   carrier tailnum origin dest 
#>   <chr>   <chr>   <chr>  <chr>
#> 1 UA      N14228  EWR    IAH  
#> 2 UA      N24211  LGA    IAH  
#> 3 AA      N619AA  JFK    MIA  
#> 4 B6      N804JB  JFK    BQN  
#> 5 DL      N668DN  LGA    ATL  
#> 6 UA      N39463  EWR    ORD  
#> # … with 336,770 more rows
…
