…
df <- read_csv(csv, col_types = cols(month = col_factor(month_levels)))
df$month
#> [1] Jan Feb Mar
#> Levels: Jan Feb Mar Apr May Jun Jul Aug Sep Oct Nov Dec

General Social Survey

For the rest of this chapter, we’re going to use forcats::gss_cat. It’s a sample of data from the General Social Survey, a long-running US survey conducted by the independent research organization NORC at the University of Chicago. The survey has thousands of questions, so in gss_cat Hadley selected a handful that will illustrate some common challenges you’ll encounter when working with factors.

gss_cat
#> # A tibble: 21,483 × 9
#>    year marital         age race  rincome        partyid  relig denom tvhours
#>   <int> <fct>         <int> <fct> <fct>          <fct>    <fct> <fct>   <int>
#> 1  2000 Never married    26 White $8000 to 9999  Ind,nea… Prot… Sout…      12
#> 2  2000 Divorced         48 White $8000 to 9999  Not str… Prot… Bapt…      NA
#> 3  2000 Widowed          67 White Not applicable Indepen… Prot… No d…       2
#> 4  2000 Never married    39 White Not applicable Ind,nea… Orth… Not …       4
#> 5  2000 Divorced         25 White Not applicable Not str… None  Not …       1
#> 6  2000 Married          25 White $20000 - 24999 Strong … Prot… Sout…      NA
#> # … with 21,477 more rows
…
Exercises

There are some suspiciously high numbers in tvhours. Is the mean a good summary?

For each factor in gss_cat identify whether the order of the levels is arbitrary or principled.

Why did moving “Not applicable” to the front of the levels move it to the bottom of the plot?

Modifying factor levels

More powerful than changing the orders of the levels is changing their values. This allows you to clarify labels for publication, and collapse levels for high-level displays. The most general and powerful tool is fct_recode(). It allows you to recode, or change, the value of each level. For example, take the gss_cat$partyid:

gss_cat |> count(partyid)
#> # A tibble: 10 × 2
#>   partyid                n
#>   <fct>              <int>
#> 1 No answer            154
#> 2 Don't know             1
#> 3 Other party          393
#> 4 Strong republican   2314
#> 5 Not str republican  3032
#> 6 Ind,near rep        1791
#> # … with 4 more rows
The levels are terse and inconsistent. Let’s tweak them to be longer and use a parallel construction. Like most rename and recoding functions in the tidyverse, the new values go on the left and the old values go on the right:

gss_cat |>
  mutate(
    partyid = fct_recode(partyid,
      "Republican, strong"    = "Strong republican",
      "Republican, weak"      = "Not str republican",
      "Independent, near rep" = "Ind,near rep",
      "Independent, near dem" = "Ind,near dem",
      "Democrat, weak"        = "Not str democrat",
      "Democrat, strong"      = "Strong democrat"
    )
  ) |>
  count(partyid)
#> # A tibble: 10 × 2
#>   partyid                   n
#>   <fct>                 <int>
#> 1 No answer               154
#> 2 Don't know                1
#> 3 Other party             393
#> 4 Republican, strong     2314
#> 5 Republican, weak       3032
#> 6 Independent, near rep  1791
#> # … with 4 more rows
…
  mutate(
    partyid = fct_recode(partyid,
      "Republican, strong"    = "Strong republican",
      "Republican, weak"      = "Not str republican",
      "Independent, near rep" = "Ind,near rep",
      "Independent, near dem" = "Ind,near dem",
      "Democrat, weak"        = "Not str democrat",
      "Democrat, strong"      = "Strong democrat",
      "Other"                 = "No answer",
      "Other"                 = "Don't know",
      "Other"                 = "Other party"
    )
  ) |>
  count(partyid)
#> # A tibble: 8 × 2
#>   partyid                   n
#>   <fct>                 <int>
#> 1 Other                   548
#> 2 Republican, strong     2314
#> 3 Republican, weak       3032
#> 4 Independent, near rep  1791
#> 5 Independent            4119
#> 6 Independent, near dem  2499
#> # … with 2 more rows
…
