…
To summarize multiple variables you’ll need to wait until #sec-across, where you’ll learn how to use across().

Another popular summarise() helper function is a version of count() that also computes proportions:

# https://twitter.com/Diabb6/status/1571635146658402309
count_prop <- function(df, var, sort = FALSE) {
  df |>
    count({{ var }}, sort = sort) |>
    mutate(prop = n / sum(n))
}
diamonds |> count_prop(clarity)
#> # A tibble: 8 × 3
#>   clarity     n   prop
#>   <ord>   <int>  <dbl>
#> 1 I1        741 0.0137
#> 2 SI2      9194 0.170 
#> 3 SI1     13065 0.242 
#> 4 VS2     12258 0.227 
#> 5 VS1      8171 0.151 
#> 6 VVS2     5066 0.0939
#> # … with 2 more rows
…
Here we embrace condition because it’s passed to filter() and var because its passed to distinct(), arrange(), and pull().

We’ve made all these examples take a data frame as the first argument, but if you’re working repeatedly with the same data, it can make sense to hardcode it. For example, the following function always works with the flights dataset and always selects time_hour, carrier, and flight since they form the compound primary key that allows you to identify a row.

flights_sub <- function(rows, cols) {
  flights |> 
    filter({{ rows }}) |> 
    select(time_hour, carrier, flight, {{ cols }})
}

flights_sub(dest == "IAH", contains("time"))
#> # A tibble: 7,198 × 8
#>   time_hour           carrier flight dep_time sched…¹ arr_t…² sched…³ air_t…⁴
#>   <dttm>              <chr>    <int>    <int>   <int>   <int>   <int>   <dbl>
#> 1 2013-01-01 05:00:00 UA        1545      517     515     830     819     227
#> 2 2013-01-01 05:00:00 UA        1714      533     529     850     830     227
#> 3 2013-01-01 06:00:00 UA         496      623     627     933     932     229
#> 4 2013-01-01 07:00:00 UA         473      728     732    1041    1038     238
#> 5 2013-01-01 07:00:00 UA        1479      739     739    1104    1038     249
#> 6 2013-01-01 09:00:00 UA        1220      908     908    1228    1219     233
#> # … with 7,192 more rows, and abbreviated variable names ¹​sched_dep_time,
#> #   ²​arr_time, ³​sched_arr_time, ⁴​air_time
…
This doesn’t work because group_by() uses data-masking, not tidy-selection. We can work around that problem by using the handy pick() which allows you to use use tidy-selection inside data-masking functions:

count_missing <- function(df, group_vars, x_var) {
  df |> 
    group_by(pick({{ group_vars }})) |> 
    summarise(n_miss = sum(is.na({{ x_var }})))
}
flights |> 
  count_missing(c(year, month, day), dep_time)
#> `summarise()` has grouped output by 'year', 'month'. You can override using
#> the `.groups` argument.
#> # A tibble: 365 × 4
#> # Groups:   year, month [12]
#>    year month   day n_miss
#>   <int> <int> <int>  <int>
#> 1  2013     1     1      4
#> 2  2013     1     2      8
#> 3  2013     1     3     10
#> 4  2013     1     4      6
#> 5  2013     1     5      3
#> 6  2013     1     6      1
#> # … with 359 more rows
Another convenient use of pick() is to make a 2d table of counts. Here we count using all the variables in the rows and columns, then use pivot_wider() to rearrange the counts into a grid:

# https://twitter.com/pollicipes/status/1571606508944719876
count_wide <- function(data, rows, cols) {
  data |> 
    count(pick(c({{ rows }}, {{ cols }}))) |> 
    pivot_wider(
      names_from = {{ cols }}, 
      values_from = n,
      names_sort = TRUE,
      values_fill = 0
    )
}
diamonds |> count_wide(clarity, cut)
#> # A tibble: 8 × 6
#>   clarity  Fair  Good `Very Good` Premium Ideal
#>   <ord>   <int> <int>       <int>   <int> <int>
#> 1 I1        210    96          84     205   146
#> 2 SI2       466  1081        2100    2949  2598
#> 3 SI1       408  1560        3240    3575  4282
#> 4 VS2       261   978        2591    3357  5071
#> 5 VS1       170   648        1775    1989  3589
#> 6 VVS2       69   286        1235     870  2606
#> # … with 2 more rows
diamonds |> count_wide(c(clarity, color), cut)
#> # A tibble: 56 × 7
#>   clarity color  Fair  Good `Very Good` Premium Ideal
#>   <ord>   <ord> <int> <int>       <int>   <int> <int>
#> 1 I1      D         4     8           5      12    13
#> 2 I1      E         9    23          22      30    18
#> 3 I1      F        35    19          13      34    42
#> 4 I1      G        53    19          16      46    16
#> 5 I1      H        52    14          12      46    38
#> 6 I1      I        34     9           8      24    17
#> # … with 50 more rows
…
