…
library(tidyverse)
library(nycflights13)

Keys

To understand joins, you need to first understand how two tables can be connected through a pair of keys, with on each table. In this section, you’ll learn about the two types of key and see examples of both in the datasets of the nycflights13 package. You’ll also learn how to check that your keys are valid, and what to do if your table lacks a key.

Primary and foreign keys

Every join involves a pair of keys: a primary key and a foreign key. A primary key is a variable or set of variables that uniquely identifies each observation. When more than one variable is needed, the key is called a compound key. For example, in nycfights13:

airlines records two pieces of data about each airline: its carrier code and its full name. You can identify an airline with its two letter carrier code, making carrier the primary key.

airlines
#> # A tibble: 16 × 2
#>   carrier name                    
#>   <chr>   <chr>                   
#> 1 9E      Endeavor Air Inc.       
#> 2 AA      American Airlines Inc.  
#> 3 AS      Alaska Airlines Inc.    
#> 4 B6      JetBlue Airways         
#> 5 DL      Delta Air Lines Inc.    
#> 6 EV      ExpressJet Airlines Inc.
#> # … with 10 more rows

airports records data about each airport. You can identify each airport by its three letter airport code, making faa the primary key.

airports
#> # A tibble: 1,458 × 8
#>   faa   name                             lat   lon   alt    tz dst   tzone      
#>   <chr> <chr>                          <dbl> <dbl> <dbl> <dbl> <chr> <chr>      
#> 1 04G   Lansdowne Airport               41.1 -80.6  1044    -5 A     America/Ne…
#> 2 06A   Moton Field Municipal Airport   32.5 -85.7   264    -6 A     America/Ch…
#> 3 06C   Schaumburg Regional             42.0 -88.1   801    -6 A     America/Ch…
#> 4 06N   Randall Airport                 41.4 -74.4   523    -5 A     America/Ne…
#> 5 09J   Jekyll Island Airport           31.1 -81.4    11    -5 A     America/Ne…
#> 6 0A9   Elizabethton Municipal Airport  36.4 -82.2  1593    -5 A     America/Ne…
#> # … with 1,452 more rows

planes records data about each plane. You can identify a plane by its tail number, making tailnum the primary key.

planes
#> # A tibble: 3,322 × 9
#>   tailnum  year type                    manuf…¹ model engines seats speed engine
#>   <chr>   <int> <chr>                   <chr>   <chr>   <int> <int> <int> <chr> 
#> 1 N10156   2004 Fixed wing multi engine EMBRAER EMB-…       2    55    NA Turbo…
#> 2 N102UW   1998 Fixed wing multi engine AIRBUS… A320…       2   182    NA Turbo…
#> 3 N103US   1999 Fixed wing multi engine AIRBUS… A320…       2   182    NA Turbo…
#> 4 N104UW   1999 Fixed wing multi engine AIRBUS… A320…       2   182    NA Turbo…
#> 5 N10575   2002 Fixed wing multi engine EMBRAER EMB-…       2    55    NA Turbo…
#> 6 N105UW   1999 Fixed wing multi engine AIRBUS… A320…       2   182    NA Turbo…
#> # … with 3,316 more rows, and abbreviated variable name ¹​manufacturer

weather records data about the weather at the origin airports. You can identify each observation by the combination of location and time, making origin and time_hour the compound primary key.

weather
#> # A tibble: 26,115 × 15
#>   origin  year month   day  hour  temp  dewp humid wind_dir wind_speed wind_gust
#>   <chr>  <int> <int> <int> <int> <dbl> <dbl> <dbl>    <dbl>      <dbl>     <dbl>
#> 1 EWR     2013     1     1     1  39.0  26.1  59.4      270      10.4         NA
#> 2 EWR     2013     1     1     2  39.0  27.0  61.6      250       8.06        NA
#> 3 EWR     2013     1     1     3  39.0  28.0  64.4      240      11.5         NA
#> 4 EWR     2013     1     1     4  39.9  28.0  62.2      250      12.7         NA
#> 5 EWR     2013     1     1     5  39.0  28.0  64.4      260      12.7         NA
#> 6 EWR     2013     1     1     6  37.9  28.0  67.2      240      11.5         NA
#> # … with 26,109 more rows, and 4 more variables: precip <dbl>, pressure <dbl>,
#> #   visib <dbl>, time_hour <dttm>
…
Identifying an airport by it’s altitude and latitude is clearly a bad idea, and in general it’s not possible to know from the data alone whether or not a combination of variables makes a good a primary key. But for flights, the combination of time_hour, carrier, and flight seems reasonable because it would be really confusing for an airline and its customers if there were multiple flights with the same flight number in the air at the same time.

That said, we might be better off introducing a simple numeric surrogate key using the row number:

flights2 <- flights |> 
  mutate(id = row_number(), .before = 1)
flights2
#> # A tibble: 336,776 × 20
#>      id  year month   day dep_time sched_dep_t…¹ dep_d…² arr_t…³ sched…⁴ arr_d…⁵
#>   <int> <int> <int> <int>    <int>         <int>   <dbl>   <int>   <int>   <dbl>
#> 1     1  2013     1     1      517           515       2     830     819      11
#> 2     2  2013     1     1      533           529       4     850     830      20
#> 3     3  2013     1     1      542           540       2     923     850      33
#> 4     4  2013     1     1      544           545      -1    1004    1022     -18
#> 5     5  2013     1     1      554           600      -6     812     837     -25
#> 6     6  2013     1     1      554           558      -4     740     728      12
#> # … with 336,770 more rows, 10 more variables: carrier <chr>, flight <int>,
#> #   tailnum <chr>, origin <chr>, dest <chr>, air_time <dbl>, distance <dbl>,
#> #   hour <dbl>, minute <dbl>, time_hour <dttm>, and abbreviated variable names
#> #   ¹​sched_dep_time, ²​dep_delay, ³​arr_time, ⁴​sched_arr_time, ⁵​arr_delay
…
Basic joins

Now that you understand how data frames are connected via keys, we can start using joins to better understand the flights dataset. dplyr provides six join functions: left_join(), inner_join(), right_join(), semi_join(), and anti_join(). They all have the same interface: they take a pair of data frames (x and y) and return a data frame. The order of the rows and columns in the output is primarily determined by x.

In this section, you’ll learn how to use one mutating join, left_join(), and two filtering joins, semi_join() and anti_join(). In the next section, you’ll learn exactly how these functions work, and about the remaining inner_join(), right_join() and full_join().

Mutating joins

A mutating join allows you to combine variables from two data frames: it first matches observations by their keys, then copies across variables from one data frame to the other. Like mutate(), the join functions add variables to the right, so if your dataset has many variables, you won’t see the new ones. For these examples, we’ll make it easier to see what’s going on by creating a narrower dataset with just six variablesRemember that in RStudio you can also use View() to avoid this problem.:

flights2 <- flights |> 
  select(year, time_hour, origin, dest, tailnum, carrier)
flights2
#> # A tibble: 336,776 × 6
#>    year time_hour           origin dest  tailnum carrier
#>   <int> <dttm>              <chr>  <chr> <chr>   <chr>  
#> 1  2013 2013-01-01 05:00:00 EWR    IAH   N14228  UA     
#> 2  2013 2013-01-01 05:00:00 LGA    IAH   N24211  UA     
#> 3  2013 2013-01-01 05:00:00 JFK    MIA   N619AA  AA     
#> 4  2013 2013-01-01 05:00:00 JFK    BQN   N804JB  B6     
#> 5  2013 2013-01-01 06:00:00 LGA    ATL   N668DN  DL     
#> 6  2013 2013-01-01 05:00:00 EWR    ORD   N39463  UA     
#> # … with 336,770 more rows

There are four types of mutating join, but there’s one that you’ll use almost all of the time: left_join(). It’s special because the output will always have the same rows as xThat’s not 100% true, but you’ll get a warning whenever it isn’t.. The primary use of left_join() is to add in additional metadata. For example, we can use left_join() to add the full airline name to the flights2 data:

flights2 |>
  left_join(airlines)
#> Joining with `by = join_by(carrier)`
#> # A tibble: 336,776 × 7
#>    year time_hour           origin dest  tailnum carrier name                  
#>   <int> <dttm>              <chr>  <chr> <chr>   <chr>   <chr>                 
#> 1  2013 2013-01-01 05:00:00 EWR    IAH   N14228  UA      United Air Lines Inc. 
#> 2  2013 2013-01-01 05:00:00 LGA    IAH   N24211  UA      United Air Lines Inc. 
#> 3  2013 2013-01-01 05:00:00 JFK    MIA   N619AA  AA      American Airlines Inc.
#> 4  2013 2013-01-01 05:00:00 JFK    BQN   N804JB  B6      JetBlue Airways       
#> 5  2013 2013-01-01 06:00:00 LGA    ATL   N668DN  DL      Delta Air Lines Inc.  
#> 6  2013 2013-01-01 05:00:00 EWR    ORD   N39463  UA      United Air Lines Inc. 
#> # … with 336,770 more rows

Or we could find out the temperature and wind speed when each plane departed:

flights2 |> 
  left_join(weather |> select(origin, time_hour, temp, wind_speed))
#> Joining with `by = join_by(time_hour, origin)`
#> # A tibble: 336,776 × 8
#>    year time_hour           origin dest  tailnum carrier  temp wind_speed
#>   <int> <dttm>              <chr>  <chr> <chr>   <chr>   <dbl>      <dbl>
#> 1  2013 2013-01-01 05:00:00 EWR    IAH   N14228  UA       39.0       12.7
#> 2  2013 2013-01-01 05:00:00 LGA    IAH   N24211  UA       39.9       15.0
#> 3  2013 2013-01-01 05:00:00 JFK    MIA   N619AA  AA       39.0       15.0
#> 4  2013 2013-01-01 05:00:00 JFK    BQN   N804JB  B6       39.0       15.0
#> 5  2013 2013-01-01 06:00:00 LGA    ATL   N668DN  DL       39.9       16.1
#> 6  2013 2013-01-01 05:00:00 EWR    ORD   N39463  UA       39.0       12.7
#> # … with 336,770 more rows

Or what size of plane was flying:

flights2 |> 
  left_join(planes |> select(tailnum, type, engines, seats))
#> Joining with `by = join_by(tailnum)`
#> # A tibble: 336,776 × 9
#>    year time_hour           origin dest  tailnum carrier type      engines seats
#>   <int> <dttm>              <chr>  <chr> <chr>   <chr>   <chr>       <int> <int>
#> 1  2013 2013-01-01 05:00:00 EWR    IAH   N14228  UA      Fixed wi…       2   149
#> 2  2013 2013-01-01 05:00:00 LGA    IAH   N24211  UA      Fixed wi…       2   149
#> 3  2013 2013-01-01 05:00:00 JFK    MIA   N619AA  AA      Fixed wi…       2   178
#> 4  2013 2013-01-01 05:00:00 JFK    BQN   N804JB  B6      Fixed wi…       2   200
#> 5  2013 2013-01-01 06:00:00 LGA    ATL   N668DN  DL      Fixed wi…       2   178
#> 6  2013 2013-01-01 05:00:00 EWR    ORD   N39463  UA      Fixed wi…       2   191
#> # … with 336,770 more rows

When left_join() fails to find a match for a row in x, it fills in the new variables with missing values. For example, there’s no information about the plane with tail number N3ALAA so the type, engines, and seats will be missing:

flights2 |> 
  filter(tailnum == "N3ALAA") |> 
  left_join(planes |> select(tailnum, type, engines, seats))
#> Joining with `by = join_by(tailnum)`
#> # A tibble: 63 × 9
#>    year time_hour           origin dest  tailnum carrier type  engines seats
#>   <int> <dttm>              <chr>  <chr> <chr>   <chr>   <chr>   <int> <int>
#> 1  2013 2013-01-01 06:00:00 LGA    ORD   N3ALAA  AA      <NA>       NA    NA
#> 2  2013 2013-01-02 18:00:00 LGA    ORD   N3ALAA  AA      <NA>       NA    NA
#> 3  2013 2013-01-03 06:00:00 LGA    ORD   N3ALAA  AA      <NA>       NA    NA
#> 4  2013 2013-01-07 19:00:00 LGA    ORD   N3ALAA  AA      <NA>       NA    NA
#> 5  2013 2013-01-08 17:00:00 JFK    ORD   N3ALAA  AA      <NA>       NA    NA
#> 6  2013 2013-01-16 06:00:00 LGA    ORD   N3ALAA  AA      <NA>       NA    NA
#> # … with 57 more rows

We’ll come back to this problem a few times in the rest of the chapter.

Specifying join keys

By default, left_join() will use all variables that appear in both data frames as the join key, the so called natural join. This is a useful heuristic, but it doesn’t always work. For example, what happens if we try to join flights2 with the complete planes dataset?

flights2 |> 
  left_join(planes)
#> Joining with `by = join_by(year, tailnum)`
#> # A tibble: 336,776 × 13
#>    year time_hour           origin dest  tailnum carrier type  manufactu…¹ model
#>   <int> <dttm>              <chr>  <chr> <chr>   <chr>   <chr> <chr>       <chr>
#> 1  2013 2013-01-01 05:00:00 EWR    IAH   N14228  UA      <NA>  <NA>        <NA> 
#> 2  2013 2013-01-01 05:00:00 LGA    IAH   N24211  UA      <NA>  <NA>        <NA> 
#> 3  2013 2013-01-01 05:00:00 JFK    MIA   N619AA  AA      <NA>  <NA>        <NA> 
#> 4  2013 2013-01-01 05:00:00 JFK    BQN   N804JB  B6      <NA>  <NA>        <NA> 
#> 5  2013 2013-01-01 06:00:00 LGA    ATL   N668DN  DL      <NA>  <NA>        <NA> 
#> 6  2013 2013-01-01 05:00:00 EWR    ORD   N39463  UA      <NA>  <NA>        <NA> 
#> # … with 336,770 more rows, 4 more variables: engines <int>, seats <int>,
#> #   speed <int>, engine <chr>, and abbreviated variable name ¹​manufacturer

We get a lot of missing matches because our join is trying to use tailnum and year as a compound key. Both flights and planes have a year column but they mean different things: flights$year is year the flight occurred and planes$year is the year the plane was built. We only want to join on tailnum so we need to provide an explicit specification with join_by():

flights2 |> 
  left_join(planes, join_by(tailnum))
#> # A tibble: 336,776 × 14
#>   year.x time_hour           origin dest  tailnum carrier year.y type    manuf…¹
#>    <int> <dttm>              <chr>  <chr> <chr>   <chr>    <int> <chr>   <chr>  
#> 1   2013 2013-01-01 05:00:00 EWR    IAH   N14228  UA        1999 Fixed … BOEING 
#> 2   2013 2013-01-01 05:00:00 LGA    IAH   N24211  UA        1998 Fixed … BOEING 
#> 3   2013 2013-01-01 05:00:00 JFK    MIA   N619AA  AA        1990 Fixed … BOEING 
#> 4   2013 2013-01-01 05:00:00 JFK    BQN   N804JB  B6        2012 Fixed … AIRBUS 
#> 5   2013 2013-01-01 06:00:00 LGA    ATL   N668DN  DL        1991 Fixed … BOEING 
#> 6   2013 2013-01-01 05:00:00 EWR    ORD   N39463  UA        2012 Fixed … BOEING 
#> # … with 336,770 more rows, 5 more variables: model <chr>, engines <int>,
#> #   seats <int>, speed <int>, engine <chr>, and abbreviated variable name
#> #   ¹​manufacturer

Note that the year variables are disambiguated in the output with a suffix (year.x and year.y), which tells you whether the variable came from the x or y argument. You can override the default suffixes with the suffix argument.

join_by(tailnum) is short for join_by(tailnum == tailnum). It’s important to know about this fuller form for two reasons. Firstly, it describes the relationship between the two tables: the keys must be equal. That’s why this type of join is often called an equi-join. You’ll learn about non-equi-joins in #sec-non-equi-joins.

Secondly, it’s how you specify different join keys in each table. For example, there are two ways to join the flight2 and airports table: either by dest or origin:

flights2 |> 
  left_join(airports, join_by(dest == faa))
#> # A tibble: 336,776 × 13
#>    year time_hour           origin dest  tailnum carrier name    lat   lon   alt
#>   <int> <dttm>              <chr>  <chr> <chr>   <chr>   <chr> <dbl> <dbl> <dbl>
#> 1  2013 2013-01-01 05:00:00 EWR    IAH   N14228  UA      Geor…  30.0 -95.3    97
#> 2  2013 2013-01-01 05:00:00 LGA    IAH   N24211  UA      Geor…  30.0 -95.3    97
#> 3  2013 2013-01-01 05:00:00 JFK    MIA   N619AA  AA      Miam…  25.8 -80.3     8
#> 4  2013 2013-01-01 05:00:00 JFK    BQN   N804JB  B6      <NA>   NA    NA      NA
#> 5  2013 2013-01-01 06:00:00 LGA    ATL   N668DN  DL      Hart…  33.6 -84.4  1026
#> 6  2013 2013-01-01 05:00:00 EWR    ORD   N39463  UA      Chic…  42.0 -87.9   668
#> # … with 336,770 more rows, and 3 more variables: tz <dbl>, dst <chr>,
#> #   tzone <chr>

flights2 |> 
  left_join(airports, join_by(origin == faa))
#> # A tibble: 336,776 × 13
#>    year time_hour           origin dest  tailnum carrier name    lat   lon   alt
#>   <int> <dttm>              <chr>  <chr> <chr>   <chr>   <chr> <dbl> <dbl> <dbl>
#> 1  2013 2013-01-01 05:00:00 EWR    IAH   N14228  UA      Newa…  40.7 -74.2    18
#> 2  2013 2013-01-01 05:00:00 LGA    IAH   N24211  UA      La G…  40.8 -73.9    22
#> 3  2013 2013-01-01 05:00:00 JFK    MIA   N619AA  AA      John…  40.6 -73.8    13
#> 4  2013 2013-01-01 05:00:00 JFK    BQN   N804JB  B6      John…  40.6 -73.8    13
#> 5  2013 2013-01-01 06:00:00 LGA    ATL   N668DN  DL      La G…  40.8 -73.9    22
#> 6  2013 2013-01-01 05:00:00 EWR    ORD   N39463  UA      Newa…  40.7 -74.2    18
#> # … with 336,770 more rows, and 3 more variables: tz <dbl>, dst <chr>,
#> #   tzone <chr>
…
airports |> 
  semi_join(flights2, join_by(faa == origin))
#> # A tibble: 3 × 8
#>   faa   name                  lat   lon   alt    tz dst   tzone           
#>   <chr> <chr>               <dbl> <dbl> <dbl> <dbl> <chr> <chr>           
#> 1 EWR   Newark Liberty Intl  40.7 -74.2    18    -5 A     America/New_York
#> 2 JFK   John F Kennedy Intl  40.6 -73.8    13    -5 A     America/New_York
#> 3 LGA   La Guardia           40.8 -73.9    22    -5 A     America/New_York

Or just the destinations:

airports |> 
  semi_join(flights2, join_by(faa == dest))
#> # A tibble: 101 × 8
#>   faa   name                                lat    lon   alt    tz dst   tzone  
#>   <chr> <chr>                             <dbl>  <dbl> <dbl> <dbl> <chr> <chr>  
#> 1 ABQ   Albuquerque International Sunport  35.0 -107.   5355    -7 A     Americ…
#> 2 ACK   Nantucket Mem                      41.3  -70.1    48    -5 A     Americ…
#> 3 ALB   Albany Intl                        42.7  -73.8   285    -5 A     Americ…
#> 4 ANC   Ted Stevens Anchorage Intl         61.2 -150.    152    -9 A     Americ…
#> 5 ATL   Hartsfield Jackson Atlanta Intl    33.6  -84.4  1026    -5 A     Americ…
#> 6 AUS   Austin Bergstrom Intl              30.2  -97.7   542    -6 A     Americ…
#> # … with 95 more rows
…
Or we can find which tailnums are missing from planes:

flights2 |>
  anti_join(planes, join_by(tailnum)) |> 
  distinct(tailnum)
#> # A tibble: 722 × 1
#>   tailnum
#>   <chr>  
#> 1 N3ALAA 
#> 2 N3DUAA 
#> 3 N542MQ 
#> 4 N730MQ 
#> 5 N9EAMQ 
#> 6 N532UA 
#> # … with 716 more rows
…
Since this duplicates rows in x (the planes), we need to explicitly say that we’re ok with the multiple matches by setting multiple = "all":

plane_flights <- planes |> 
  select(tailnum, type, engines, seats) |> 
  left_join(flights2, by = "tailnum", multiple = "all")

plane_flights
#> # A tibble: 284,170 × 9
#>   tailnum type      engines seats  year time_hour           origin dest  carrier
#>   <chr>   <chr>       <int> <int> <int> <dttm>              <chr>  <chr> <chr>  
#> 1 N10156  Fixed wi…       2    55  2013 2013-01-10 06:00:00 EWR    PIT   EV     
#> 2 N10156  Fixed wi…       2    55  2013 2013-01-10 10:00:00 EWR    CHS   EV     
#> 3 N10156  Fixed wi…       2    55  2013 2013-01-10 15:00:00 EWR    MSP   EV     
#> 4 N10156  Fixed wi…       2    55  2013 2013-01-11 06:00:00 EWR    CMH   EV     
#> 5 N10156  Fixed wi…       2    55  2013 2013-01-11 11:00:00 EWR    MCI   EV     
#> 6 N10156  Fixed wi…       2    55  2013 2013-01-11 18:00:00 EWR    PWM   EV     
#> # … with 284,164 more rows
…
Figure 19.14: A cross join matches each row in x with every row in y.

Cross joins are useful when generating permutations. For example, the code below generates every possible pair of names. Since we’re joining df to itself, this is sometimes called a self-join.

df <- tibble(name = c("John", "Simon", "Tracy", "Max"))
df |> left_join(df, join_by())
#> # A tibble: 16 × 2
#>   name.x name.y
#>   <chr>  <chr> 
#> 1 John   John  
#> 2 John   Simon 
#> 3 John   Tracy 
#> 4 John   Max   
#> 5 Simon  John  
#> 6 Simon  Simon 
#> # … with 10 more rows
…
