…
Aesthetic mappings

“The greatest value of a picture is when it forces us to notice what we never expected to see.” — John Tukey

The mpg data frame that is bundled with the ggplot2 package contains 234 observations collected by the US Environmental Protection Agency on 38 car models.

mpg
#> # A tibble: 234 × 11
#>   manufacturer model displ  year   cyl trans    drv     cty   hwy fl    class
#>   <chr>        <chr> <dbl> <int> <int> <chr>    <chr> <int> <int> <chr> <chr>
#> 1 audi         a4      1.8  1999     4 auto(l5) f        18    29 p     comp…
#> 2 audi         a4      1.8  1999     4 manual(… f        21    29 p     comp…
#> 3 audi         a4      2    2008     4 manual(… f        20    31 p     comp…
#> 4 audi         a4      2    2008     4 auto(av) f        21    30 p     comp…
#> 5 audi         a4      2.8  1999     6 auto(l5) f        16    26 p     comp…
#> 6 audi         a4      2.8  1999     6 manual(… f        18    26 p     comp…
#> # … with 228 more rows
…
