…
This tibble contains 6 rows, one row for each child of gh_repos. Each row contains a unnamed list with either 26 or 30 rows. Since these are unnamed, we’ll start with unnest_longer() to put each child in its own row:

repos |> 
  unnest_longer(json)
#> # A tibble: 176 × 1
#>   json             
#>   <list>           
#> 1 <named list [68]>
#> 2 <named list [68]>
#> 3 <named list [68]>
#> 4 <named list [68]>
#> 5 <named list [68]>
#> 6 <named list [68]>
#> # … with 170 more rows

At first glance, it might seem like we haven’t improved the situation: while we have more rows (176 instead of 6) each element of json is still a list. However, there’s an important difference: now each element is a named list so we can use unnest_wider() to put each element into its own column:

repos |> 
  unnest_longer(json) |> 
  unnest_wider(json) 
#> # A tibble: 176 × 68
#>         id name     full_name owner        private html_url description fork 
#>      <int> <chr>    <chr>     <list>       <lgl>   <chr>    <chr>       <lgl>
#> 1 61160198 after    gaborcsa… <named list> FALSE   https:/… Run Code i… FALSE
#> 2 40500181 argufy   gaborcsa… <named list> FALSE   https:/… Declarativ… FALSE
#> 3 36442442 ask      gaborcsa… <named list> FALSE   https:/… Friendly C… FALSE
#> 4 34924886 baseimp… gaborcsa… <named list> FALSE   https:/… Do we get … FALSE
#> 5 61620661 citest   gaborcsa… <named list> FALSE   https:/… Test R pac… TRUE 
#> 6 33907457 clisymb… gaborcsa… <named list> FALSE   https:/… Unicode sy… FALSE
#> # … with 170 more rows, and 60 more variables: url <chr>, forks_url <chr>,
#> #   keys_url <chr>, collaborators_url <chr>, teams_url <chr>,
#> #   hooks_url <chr>, issue_events_url <chr>, events_url <chr>,
#> #   assignees_url <chr>, branches_url <chr>, tags_url <chr>,
#> #   blobs_url <chr>, git_tags_url <chr>, git_refs_url <chr>,
#> #   trees_url <chr>, statuses_url <chr>, languages_url <chr>,
#> #   stargazers_url <chr>, contributors_url <chr>, subscribers_url <chr>, …
…
Let’s select a few that look interesting:

repos |> 
  unnest_longer(json) |> 
  unnest_wider(json) |> 
  select(id, full_name, owner, description)
#> # A tibble: 176 × 4
#>         id full_name               owner             description             
#>      <int> <chr>                   <list>            <chr>                   
#> 1 61160198 gaborcsardi/after       <named list [17]> Run Code in the Backgro…
#> 2 40500181 gaborcsardi/argufy      <named list [17]> Declarative function ar…
#> 3 36442442 gaborcsardi/ask         <named list [17]> Friendly CLI interactio…
#> 4 34924886 gaborcsardi/baseimports <named list [17]> Do we get warnings for …
#> 5 61620661 gaborcsardi/citest      <named list [17]> Test R package and repo…
#> 6 33907457 gaborcsardi/clisymbols  <named list [17]> Unicode symbols for CLI…
#> # … with 170 more rows
…
Uh oh, this list column also contains an id column and we can’t have two id columns in the same data frame. Rather than following the advice to use names_repair (which would also work), we’ll instead use names_sep:

repos |> 
  unnest_longer(json) |> 
  unnest_wider(json) |> 
  select(id, full_name, owner, description) |> 
  unnest_wider(owner, names_sep = "_")
#> # A tibble: 176 × 20
#>         id full_name  owner_login owner_id owner_avatar_url owner_gravatar_id
#>      <int> <chr>      <chr>          <int> <chr>            <chr>            
#> 1 61160198 gaborcsar… gaborcsardi   660288 https://avatars… ""               
#> 2 40500181 gaborcsar… gaborcsardi   660288 https://avatars… ""               
#> 3 36442442 gaborcsar… gaborcsardi   660288 https://avatars… ""               
#> 4 34924886 gaborcsar… gaborcsardi   660288 https://avatars… ""               
#> 5 61620661 gaborcsar… gaborcsardi   660288 https://avatars… ""               
#> 6 33907457 gaborcsar… gaborcsardi   660288 https://avatars… ""               
#> # … with 170 more rows, and 14 more variables: owner_url <chr>,
#> #   owner_html_url <chr>, owner_followers_url <chr>,
#> #   owner_following_url <chr>, owner_gists_url <chr>,
#> #   owner_starred_url <chr>, owner_subscriptions_url <chr>,
#> #   owner_organizations_url <chr>, owner_repos_url <chr>,
#> #   owner_events_url <chr>, owner_received_events_url <chr>,
#> #   owner_type <chr>, owner_site_admin <lgl>, description <chr>

This gives another wide dataset, but you can see that owner appears to contain a lot of additional data about the person who “owns” the repository.

Relational data

Nested data is sometimes used to represent data that we’d usually spread out into multiple data frames. For example, take got_chars which contains data about characters that appear in Game of Thrones. Like gh_repos it’s a list, so we start by turning it into a list-column of a tibble:

chars <- tibble(json = got_chars)
chars
#> # A tibble: 30 × 1
#>   json             
#>   <list>           
#> 1 <named list [18]>
#> 2 <named list [18]>
#> 3 <named list [18]>
#> 4 <named list [18]>
#> 5 <named list [18]>
#> 6 <named list [18]>
#> # … with 24 more rows

The json column contains named elements, so we’ll start by widening it:

chars |> 
  unnest_wider(json)
#> # A tibble: 30 × 18
#>   url         id name  gender culture born  died  alive titles aliases father
#>   <chr>    <int> <chr> <chr>  <chr>   <chr> <chr> <lgl> <list> <list>  <chr> 
#> 1 https:/…  1022 Theo… Male   "Ironb… "In … ""    TRUE  <chr>  <chr>   ""    
#> 2 https:/…  1052 Tyri… Male   ""      "In … ""    TRUE  <chr>  <chr>   ""    
#> 3 https:/…  1074 Vict… Male   "Ironb… "In … ""    TRUE  <chr>  <chr>   ""    
#> 4 https:/…  1109 Will  Male   ""      ""    "In … FALSE <chr>  <chr>   ""    
#> 5 https:/…  1166 Areo… Male   "Norvo… "In … ""    TRUE  <chr>  <chr>   ""    
#> 6 https:/…  1267 Chett Male   ""      "At … "In … FALSE <chr>  <chr>   ""    
#> # … with 24 more rows, and 7 more variables: mother <chr>, spouse <chr>,
#> #   allegiances <list>, books <list>, povBooks <list>, tvSeries <list>,
#> #   playedBy <list>

And selecting a few columns to make it easier to read:

characters <- chars |> 
  unnest_wider(json) |> 
  select(id, name, gender, culture, born, died, alive)
characters
#> # A tibble: 30 × 7
#>      id name              gender culture    born                  died  alive
#>   <int> <chr>             <chr>  <chr>      <chr>                 <chr> <lgl>
#> 1  1022 Theon Greyjoy     Male   "Ironborn" "In 278 AC or 279 AC… ""    TRUE 
#> 2  1052 Tyrion Lannister  Male   ""         "In 273 AC, at Caste… ""    TRUE 
#> 3  1074 Victarion Greyjoy Male   "Ironborn" "In 268 AC or before… ""    TRUE 
#> 4  1109 Will              Male   ""         ""                    "In … FALSE
#> 5  1166 Areo Hotah        Male   "Norvoshi" "In 257 AC or before… ""    TRUE 
#> 6  1267 Chett             Male   ""         "At Hag's Mire"       "In … FALSE
#> # … with 24 more rows

There are also many list-columns:

chars |> 
  unnest_wider(json) |> 
  select(id, where(is.list))
#> # A tibble: 30 × 8
#>      id titles    aliases    allegiances books     povBooks tvSeries playedBy
#>   <int> <list>    <list>     <list>      <list>    <list>   <list>   <list>  
#> 1  1022 <chr [2]> <chr [4]>  <chr [1]>   <chr [3]> <chr>    <chr>    <chr>   
#> 2  1052 <chr [2]> <chr [11]> <chr [1]>   <chr [2]> <chr>    <chr>    <chr>   
#> 3  1074 <chr [2]> <chr [1]>  <chr [1]>   <chr [3]> <chr>    <chr>    <chr>   
#> 4  1109 <chr [1]> <chr [1]>  <NULL>      <chr [1]> <chr>    <chr>    <chr>   
#> 5  1166 <chr [1]> <chr [1]>  <chr [1]>   <chr [3]> <chr>    <chr>    <chr>   
#> 6  1267 <chr [1]> <chr [1]>  <NULL>      <chr [2]> <chr>    <chr>    <chr>   
#> # … with 24 more rows

Lets explore the titles column. It’s an unnamed list-column, so we’ll unnest it into rows:

chars |> 
  unnest_wider(json) |> 
  select(id, titles) |> 
  unnest_longer(titles)
#> # A tibble: 59 × 2
#>      id titles                                              
#>   <int> <chr>                                               
#> 1  1022 Prince of Winterfell                                
#> 2  1022 Lord of the Iron Islands (by law of the green lands)
#> 3  1052 Acting Hand of the King (former)                    
#> 4  1052 Master of Coin (former)                             
#> 5  1074 Lord Captain of the Iron Fleet                      
#> 6  1074 Master of the Iron Victory                          
#> # … with 53 more rows

You might expect to see this data in its own table because it would be easy to join to the characters data as needed. To do so, we’ll do a little cleaning: removing the rows containing empty strings and renaming titles to title since each row now only contains a single title.

titles <- chars |> 
  unnest_wider(json) |> 
  select(id, titles) |> 
  unnest_longer(titles) |> 
  filter(titles != "") |> 
  rename(title = titles)
titles
#> # A tibble: 52 × 2
#>      id title                                               
#>   <int> <chr>                                               
#> 1  1022 Prince of Winterfell                                
#> 2  1022 Lord of the Iron Islands (by law of the green lands)
#> 3  1052 Acting Hand of the King (former)                    
#> 4  1052 Master of Coin (former)                             
#> 5  1074 Lord Captain of the Iron Fleet                      
#> 6  1074 Master of the Iron Victory                          
#> # … with 46 more rows
…
captains <- titles |> filter(str_detect(title, "Captain"))
captains
#> # A tibble: 4 × 2
#>      id title                                 
#>   <int> <chr>                                 
#> 1  1074 Lord Captain of the Iron Fleet        
#> 2  1166 Captain of the Guard at Sunspear      
#> 3   150 Captain of the Black Wind             
#> 4    60 Captain of the Golden Storm (formerly)

characters |> 
  select(id, name) |> 
  inner_join(titles, by = "id", multiple = "all")
#> # A tibble: 52 × 3
#>      id name              title                                              
#>   <int> <chr>             <chr>                                              
#> 1  1022 Theon Greyjoy     Prince of Winterfell                               
#> 2  1022 Theon Greyjoy     Lord of the Iron Islands (by law of the green land…
#> 3  1052 Tyrion Lannister  Acting Hand of the King (former)                   
#> 4  1052 Tyrion Lannister  Master of Coin (former)                            
#> 5  1074 Victarion Greyjoy Lord Captain of the Iron Fleet                     
#> 6  1074 Victarion Greyjoy Master of the Iron Victory                         
#> # … with 46 more rows

You could imagine creating a table like this for each of the list-columns, then using joins to combine them with the character data as you need it.

A dash of text analysis

Sticking with the same data, what if we wanted to find the most common words in the title? One simple approach starts by using str_split() to break each element of title up into words by splitting on " ":

titles |> 
  mutate(word = str_split(title, " "), .keep = "unused")
#> # A tibble: 52 × 2
#>      id word      
#>   <int> <list>    
#> 1  1022 <chr [3]> 
#> 2  1022 <chr [11]>
#> 3  1052 <chr [6]> 
#> 4  1052 <chr [4]> 
#> 5  1074 <chr [6]> 
#> 6  1074 <chr [5]> 
#> # … with 46 more rows

This creates an unnamed variable length list-column, so we can use unnest_longer():

titles |> 
  mutate(word = str_split(title, " "), .keep = "unused") |> 
  unnest_longer(word)
#> # A tibble: 198 × 2
#>      id word      
#>   <int> <chr>     
#> 1  1022 Prince    
#> 2  1022 of        
#> 3  1022 Winterfell
#> 4  1022 Lord      
#> 5  1022 of        
#> 6  1022 the       
#> # … with 192 more rows

And then we can count that column to find the most common words:

titles |> 
  mutate(word = str_split(title, " "), .keep = "unused") |> 
  unnest_longer(word) |> 
  count(word, sort = TRUE)
#> # A tibble: 77 × 2
#>   word         n
#>   <chr>    <int>
#> 1 of          40
#> 2 the         29
#> 3 Lord         9
#> 4 Hand         6
#> 5 King         5
#> 6 Princess     5
#> # … with 71 more rows

Some of those words are not very interesting so we could create a list of common words to drop. In text analysis these are commonly called stop words.

stop_words <- tibble(word = c("of", "the"))

titles |> 
  mutate(word = str_split(title, " "), .keep = "unused") |> 
  unnest_longer(word) |> 
  anti_join(stop_words) |> 
  count(word, sort = TRUE)
#> Joining with `by = join_by(word)`
#> # A tibble: 75 × 2
#>   word         n
#>   <chr>    <int>
#> 1 Lord         9
#> 2 Hand         6
#> 3 King         5
#> 4 Princess     5
#> 5 Queen        5
#> 6 Ser          5
#> # … with 69 more rows
…
This gives us the status and the results. We’ll drop the status column since they’re all OK; in a real analysis, you’d also want to capture all the rows where status != "OK" and figure out what went wrong. results is an unnamed list, with either one or two elements (we’ll see why shortly) so we’ll unnest it into rows:

gmaps_cities |> 
  unnest_wider(json) |> 
  select(-status) |> 
  unnest_longer(results)
#> # A tibble: 7 × 2
#>   city       results         
#>   <chr>      <list>          
#> 1 Houston    <named list [5]>
#> 2 Washington <named list [5]>
#> 3 Washington <named list [5]>
#> 4 New York   <named list [5]>
#> 5 Chicago    <named list [5]>
#> 6 Arlington  <named list [5]>
#> # … with 1 more row

Now results is a named list, so we’ll use unnest_wider():

locations <- gmaps_cities |> 
  unnest_wider(json) |> 
  select(-status) |> 
  unnest_longer(results) |> 
  unnest_wider(results)
locations
#> # A tibble: 7 × 6
#>   city       address_compone…¹ formatted_address geometry     place_id types 
#>   <chr>      <list>            <chr>             <list>       <chr>    <list>
#> 1 Houston    <list [4]>        Houston, TX, USA  <named list> ChIJAYW… <list>
#> 2 Washington <list [2]>        Washington, USA   <named list> ChIJ-bD… <list>
#> 3 Washington <list [4]>        Washington, DC, … <named list> ChIJW-T… <list>
#> 4 New York   <list [3]>        New York, NY, USA <named list> ChIJOwg… <list>
#> 5 Chicago    <list [4]>        Chicago, IL, USA  <named list> ChIJ7cv… <list>
#> 6 Arlington  <list [4]>        Arlington, TX, U… <named list> ChIJ05g… <list>
#> # … with 1 more row, and abbreviated variable name ¹​address_components

Now we can see why two cities got two results: Washington matched both Washington state and Washington, DC, and Arlington matched Arlington, Virginia and Arlington, Texas.

There are few different places we could go from here. We might want to determine the exact location of the match, which is stored in the geometry list-column:

locations |> 
  select(city, formatted_address, geometry) |> 
  unnest_wider(geometry)
#> # A tibble: 7 × 6
#>   city       formatted_address   bounds           location     location_type
#>   <chr>      <chr>               <list>           <list>       <chr>        
#> 1 Houston    Houston, TX, USA    <named list [2]> <named list> APPROXIMATE  
#> 2 Washington Washington, USA     <named list [2]> <named list> APPROXIMATE  
#> 3 Washington Washington, DC, USA <named list [2]> <named list> APPROXIMATE  
#> 4 New York   New York, NY, USA   <named list [2]> <named list> APPROXIMATE  
#> 5 Chicago    Chicago, IL, USA    <named list [2]> <named list> APPROXIMATE  
#> 6 Arlington  Arlington, TX, USA  <named list [2]> <named list> APPROXIMATE  
#> # … with 1 more row, and 1 more variable: viewport <list>

That gives us new bounds (a rectangular region) and location (a point). We can unnest location to see the latitude (lat) and longitude (lng):

locations |> 
  select(city, formatted_address, geometry) |> 
  unnest_wider(geometry) |> 
  unnest_wider(location)
#> # A tibble: 7 × 7
#>   city       formatted_address   bounds             lat    lng location_type
#>   <chr>      <chr>               <list>           <dbl>  <dbl> <chr>        
#> 1 Houston    Houston, TX, USA    <named list [2]>  29.8  -95.4 APPROXIMATE  
#> 2 Washington Washington, USA     <named list [2]>  47.8 -121.  APPROXIMATE  
#> 3 Washington Washington, DC, USA <named list [2]>  38.9  -77.0 APPROXIMATE  
#> 4 New York   New York, NY, USA   <named list [2]>  40.7  -74.0 APPROXIMATE  
#> 5 Chicago    Chicago, IL, USA    <named list [2]>  41.9  -87.6 APPROXIMATE  
#> 6 Arlington  Arlington, TX, USA  <named list [2]>  32.7  -97.1 APPROXIMATE  
#> # … with 1 more row, and 1 more variable: viewport <list>

Extracting the bounds requires a few more steps:

locations |> 
  select(city, formatted_address, geometry) |> 
  unnest_wider(geometry) |> 
  # focus on the variables of interest
  select(!location:viewport) |>
  unnest_wider(bounds)
#> # A tibble: 7 × 4
#>   city       formatted_address   northeast        southwest       
#>   <chr>      <chr>               <list>           <list>          
#> 1 Houston    Houston, TX, USA    <named list [2]> <named list [2]>
#> 2 Washington Washington, USA     <named list [2]> <named list [2]>
#> 3 Washington Washington, DC, USA <named list [2]> <named list [2]>
#> 4 New York   New York, NY, USA   <named list [2]> <named list [2]>
#> 5 Chicago    Chicago, IL, USA    <named list [2]> <named list [2]>
#> 6 Arlington  Arlington, TX, USA  <named list [2]> <named list [2]>
#> # … with 1 more row

We then rename southwest and northeast (the corners of the rectangle) so we can use names_sep to create short but evocative names:

locations |> 
  select(city, formatted_address, geometry) |> 
  unnest_wider(geometry) |> 
  select(!location:viewport) |>
  unnest_wider(bounds) |> 
  rename(ne = northeast, sw = southwest) |> 
  unnest_wider(c(ne, sw), names_sep = "_") 
#> # A tibble: 7 × 6
#>   city       formatted_address   ne_lat ne_lng sw_lat sw_lng
#>   <chr>      <chr>                <dbl>  <dbl>  <dbl>  <dbl>
#> 1 Houston    Houston, TX, USA      30.1  -95.0   29.5  -95.8
#> 2 Washington Washington, USA       49.0 -117.    45.5 -125. 
#> 3 Washington Washington, DC, USA   39.0  -76.9   38.8  -77.1
#> 4 New York   New York, NY, USA     40.9  -73.7   40.5  -74.3
#> 5 Chicago    Chicago, IL, USA      42.0  -87.5   41.6  -87.9
#> 6 Arlington  Arlington, TX, USA    32.8  -97.0   32.6  -97.2
#> # … with 1 more row

Note how we unnest two columns simultaneously by supplying a vector of variable names to unnest_wider().

This is where hoist(), mentioned earlier in the chapter, can be useful. Once you’ve discovered the path to get to the components you’re interested in, you can extract them directly using hoist():

locations |> 
  select(city, formatted_address, geometry) |> 
  hoist(
    geometry,
    ne_lat = c("bounds", "northeast", "lat"),
    sw_lat = c("bounds", "southwest", "lat"),
    ne_lng = c("bounds", "northeast", "lng"),
    sw_lng = c("bounds", "southwest", "lng"),
  )
#> # A tibble: 7 × 7
#>   city       formatted_address   ne_lat sw_lat ne_lng sw_lng geometry        
#>   <chr>      <chr>                <dbl>  <dbl>  <dbl>  <dbl> <list>          
#> 1 Houston    Houston, TX, USA      30.1   29.5  -95.0  -95.8 <named list [4]>
#> 2 Washington Washington, USA       49.0   45.5 -117.  -125.  <named list [4]>
#> 3 Washington Washington, DC, USA   39.0   38.8  -76.9  -77.1 <named list [4]>
#> 4 New York   New York, NY, USA     40.9   40.5  -73.7  -74.3 <named list [4]>
#> 5 Chicago    Chicago, IL, USA      42.0   41.6  -87.5  -87.9 <named list [4]>
#> 6 Arlington  Arlington, TX, USA    32.8   32.6  -97.0  -97.2 <named list [4]>
#> # … with 1 more row
…
