…
Once we’ve done that for each component, we can wrap all the results up into a tibble:

tibble(
  title = section |> html_element("h2") |> html_text2(),
  released = section |> 
    html_element("p") |> 
    html_text2() |> 
    str_remove("Released: ") |> 
    parse_date(),
  director = section |> html_element(".director") |> html_text2(),
  intro = section |> html_element(".crawl") |> html_text2()
)
#> # A tibble: 7 × 4
#>   title                   released   director         intro                  
#>   <chr>                   <date>     <chr>            <chr>                  
#> 1 The Phantom Menace      1999-05-19 George Lucas     "Turmoil has engulfed …
#> 2 Attack of the Clones    2002-05-16 George Lucas     "There is unrest in th…
#> 3 Revenge of the Sith     2005-05-19 George Lucas     "War! The Republic is …
#> 4 A New Hope              1977-05-25 George Lucas     "It is a period of civ…
#> 5 The Empire Strikes Back 1980-05-17 Irvin Kershner   "It is a dark time for…
#> 6 Return of the Jedi      1983-05-25 Richard Marquand "Luke Skywalker has re…
#> # … with 1 more row
…
Screenshot of the IMDb top movies web page taken on 2022-12-05.

This data has a clear tabular structure so it’s worth starting with html_table():

url <- "https://www.imdb.com/chart/top"
html <- read_html(url)

table <- html |> 
  html_element("table") |> 
  html_table()
table
#> # A tibble: 250 × 5
#>   ``    `Rank & Title`                      `IMDb Rating` `Your Rating` ``   
#>   <lgl> <chr>                                       <dbl> <chr>         <lgl>
#> 1 NA    "1.\n      The Shawshank Redemptio…           9.2 "12345678910… NA   
#> 2 NA    "2.\n      The Godfather\n        …           9.2 "12345678910… NA   
#> 3 NA    "3.\n      The Dark Knight\n      …           9   "12345678910… NA   
#> 4 NA    "4.\n      The Godfather: Part II\…           9   "12345678910… NA   
#> 5 NA    "5.\n      12 Angry Men\n        (…           9   "12345678910… NA   
#> 6 NA    "6.\n      Schindler's List\n     …           8.9 "12345678910… NA   
#> # … with 244 more rows
…
    rating = `IMDb Rating`
  ) |> 
  mutate(
    rank_title_year = str_squish(rank_title_year)
  ) |> 
  separate_wider_regex(
    rank_title_year,
    patterns = c(
      rank = "\\d+", "\\. ",
      title = ".+", " \\(",
      year = "\\d+", "\\)"
    )
  )
ratings
#> # A tibble: 250 × 4
#>   rank  title                    year  rating
#>   <chr> <chr>                    <chr>  <dbl>
#> 1 1     The Shawshank Redemption 1994     9.2
#> 2 2     The Godfather            1972     9.2
#> 3 3     The Dark Knight          2008     9  
#> 4 4     The Godfather: Part II   1974     9  
#> 5 5     12 Angry Men             1957     9  
#> 6 6     Schindler's List         1993     8.9
#> # … with 244 more rows
…
  mutate(
    rating_n = html |> html_elements("td strong") |> html_attr("title")
  ) |> 
  separate_wider_regex(
    rating_n,
    patterns = c(
      "[0-9.]+ based on ",
      number = "[0-9,]+",
      " user ratings"
    )
  ) |> 
  mutate(
    number = parse_number(number)
  )
#> # A tibble: 250 × 5
#>   rank  title                    year  rating  number
#>   <chr> <chr>                    <chr>  <dbl>   <dbl>
#> 1 1     The Shawshank Redemption 1994     9.2 2684096
#> 2 2     The Godfather            1972     9.2 1861107
#> 3 3     The Dark Knight          2008     9   2657484
#> 4 4     The Godfather: Part II   1974     9   1273669
#> 5 5     12 Angry Men             1957     9    792941
#> 6 6     Schindler's List         1993     8.9 1357901
#> # … with 244 more rows
…
