rectangling
…
This tibble contains 6 rows, one row for each child of gh_repos. Each row contains an unnamed list with either 26 or 30 rows. Since these are unnamed, we’ll start with unnest_longer() to put each child in its own row:

repos |> 
  unnest_longer(json)
#> # A tibble: 176 × 1
#>   json             
#>   <list>           
#> 1 <named list [68]>
#> 2 <named list [68]>
#> 3 <named list [68]>
#> 4 <named list [68]>
#> 5 <named list [68]>
#> 6 <named list [68]>
#> # ℹ 170 more rows

At first glance, it might seem like we haven’t improved the situation: while we have more rows (176 instead of 6) each element of json is still a list. However, there’s an important difference: now each element is a named list so we can use unnest_wider() to put each element into its own column:

repos |> 
  unnest_longer(json) |> 
  unnest_wider(json) 
#> # A tibble: 176 × 68
#>         id name        full_name         owner        private html_url       
#>      <int> <chr>       <chr>             <list>       <lgl>   <chr>          
#> 1 61160198 after       gaborcsardi/after <named list> FALSE   https://github…
#> 2 40500181 argufy      gaborcsardi/argu… <named list> FALSE   https://github…
#> 3 36442442 ask         gaborcsardi/ask   <named list> FALSE   https://github…
#> 4 34924886 baseimports gaborcsardi/base… <named list> FALSE   https://github…
#> 5 61620661 citest      gaborcsardi/cite… <named list> FALSE   https://github…
#> 6 33907457 clisymbols  gaborcsardi/clis… <named list> FALSE   https://github…
#> # ℹ 170 more rows
#> # ℹ 62 more variables: description <chr>, fork <lgl>, url <chr>, …
…
repos |> 
  unnest_longer(json) |> 
  unnest_wider(json) |> 
  names() |> 
  head(10)
#>  [1] "id"          "name"        "full_name"   "owner"       "private"    
#>  [6] "html_url"    "description" "fork"        "url"         "forks_url"

Let’s pull out a few that look interesting:

repos |> 
  unnest_longer(json) |> 
  unnest_wider(json) |> 
  select(id, full_name, owner, description)
#> # A tibble: 176 × 4
#>         id full_name               owner             description             
#>      <int> <chr>                   <list>            <chr>                   
#> 1 61160198 gaborcsardi/after       <named list [17]> Run Code in the Backgro…
#> 2 40500181 gaborcsardi/argufy      <named list [17]> Declarative function ar…
#> 3 36442442 gaborcsardi/ask         <named list [17]> Friendly CLI interactio…
#> 4 34924886 gaborcsardi/baseimports <named list [17]> Do we get warnings for …
#> 5 61620661 gaborcsardi/citest      <named list [17]> Test R package and repo…
#> 6 33907457 gaborcsardi/clisymbols  <named list [17]> Unicode symbols for CLI…
#> # ℹ 170 more rows
…
Uh oh, this list column also contains an id column and we can’t have two id columns in the same data frame. As suggested, lets use names_sep to resolve the problem:

repos |> 
  unnest_longer(json) |> 
  unnest_wider(json) |> 
  select(id, full_name, owner, description) |> 
  unnest_wider(owner, names_sep = "_")
#> # A tibble: 176 × 20
#>         id full_name               owner_login owner_id owner_avatar_url     
#>      <int> <chr>                   <chr>          <int> <chr>                
#> 1 61160198 gaborcsardi/after       gaborcsardi   660288 https://avatars.gith…
#> 2 40500181 gaborcsardi/argufy      gaborcsardi   660288 https://avatars.gith…
#> 3 36442442 gaborcsardi/ask         gaborcsardi   660288 https://avatars.gith…
#> 4 34924886 gaborcsardi/baseimports gaborcsardi   660288 https://avatars.gith…
#> 5 61620661 gaborcsardi/citest      gaborcsardi   660288 https://avatars.gith…
#> 6 33907457 gaborcsardi/clisymbols  gaborcsardi   660288 https://avatars.gith…
#> # ℹ 170 more rows
#> # ℹ 15 more variables: owner_gravatar_id <chr>, owner_url <chr>, …

This gives another wide dataset, but you can get the sense that owner appears to contain a lot of additional data about the person who “owns” the repository.

Relational data

Nested data is sometimes used to represent data that we’d usually spread across multiple data frames. For example, take got_chars which contains data about characters that appear in the Game of Thrones books and TV series. Like gh_repos it’s a list, so we start by turning it into a list-column of a tibble:

chars <- tibble(json = got_chars)
chars
#> # A tibble: 30 × 1
#>   json             
#>   <list>           
#> 1 <named list [18]>
#> 2 <named list [18]>
#> 3 <named list [18]>
#> 4 <named list [18]>
#> 5 <named list [18]>
#> 6 <named list [18]>
#> # ℹ 24 more rows

The json column contains named elements, so we’ll start by widening it:

chars |> 
  unnest_wider(json)
#> # A tibble: 30 × 18
#>   url                    id name            gender culture    born           
#>   <chr>               <int> <chr>           <chr>  <chr>      <chr>          
#> 1 https://www.anapio…  1022 Theon Greyjoy   Male   "Ironborn" "In 278 AC or …
#> 2 https://www.anapio…  1052 Tyrion Lannist… Male   ""         "In 273 AC, at…
#> 3 https://www.anapio…  1074 Victarion Grey… Male   "Ironborn" "In 268 AC or …
#> 4 https://www.anapio…  1109 Will            Male   ""         ""             
#> 5 https://www.anapio…  1166 Areo Hotah      Male   "Norvoshi" "In 257 AC or …
#> 6 https://www.anapio…  1267 Chett           Male   ""         "At Hag's Mire"
#> # ℹ 24 more rows
#> # ℹ 12 more variables: died <chr>, alive <lgl>, titles <list>, …

And selecting a few columns to make it easier to read:

characters <- chars |> 
  unnest_wider(json) |> 
  select(id, name, gender, culture, born, died, alive)
characters
#> # A tibble: 30 × 7
#>      id name              gender culture    born              died           
#>   <int> <chr>             <chr>  <chr>      <chr>             <chr>          
#> 1  1022 Theon Greyjoy     Male   "Ironborn" "In 278 AC or 27… ""             
#> 2  1052 Tyrion Lannister  Male   ""         "In 273 AC, at C… ""             
#> 3  1074 Victarion Greyjoy Male   "Ironborn" "In 268 AC or be… ""             
#> 4  1109 Will              Male   ""         ""                "In 297 AC, at…
#> 5  1166 Areo Hotah        Male   "Norvoshi" "In 257 AC or be… ""             
#> 6  1267 Chett             Male   ""         "At Hag's Mire"   "In 299 AC, at…
#> # ℹ 24 more rows
#> # ℹ 1 more variable: alive <lgl>

This dataset contains also many list-columns:

chars |> 
  unnest_wider(json) |> 
  select(id, where(is.list))
#> # A tibble: 30 × 8
#>      id titles    aliases    allegiances books     povBooks tvSeries playedBy
#>   <int> <list>    <list>     <list>      <list>    <list>   <list>   <list>  
#> 1  1022 <chr [2]> <chr [4]>  <chr [1]>   <chr [3]> <chr>    <chr>    <chr>   
#> 2  1052 <chr [2]> <chr [11]> <chr [1]>   <chr [2]> <chr>    <chr>    <chr>   
#> 3  1074 <chr [2]> <chr [1]>  <chr [1]>   <chr [3]> <chr>    <chr>    <chr>   
#> 4  1109 <chr [1]> <chr [1]>  <NULL>      <chr [1]> <chr>    <chr>    <chr>   
#> 5  1166 <chr [1]> <chr [1]>  <chr [1]>   <chr [3]> <chr>    <chr>    <chr>   
#> 6  1267 <chr [1]> <chr [1]>  <NULL>      <chr [2]> <chr>    <chr>    <chr>   
#> # ℹ 24 more rows

Let’s explore the titles column. It’s an unnamed list-column, so we’ll unnest it into rows:

chars |> 
  unnest_wider(json) |> 
  select(id, titles) |> 
  unnest_longer(titles)
#> # A tibble: 59 × 2
#>      id titles                                              
#>   <int> <chr>                                               
#> 1  1022 Prince of Winterfell                                
#> 2  1022 Lord of the Iron Islands (by law of the green lands)
#> 3  1052 Acting Hand of the King (former)                    
#> 4  1052 Master of Coin (former)                             
#> 5  1074 Lord Captain of the Iron Fleet                      
#> 6  1074 Master of the Iron Victory                          
#> # ℹ 53 more rows

You might expect to see this data in its own table because it would be easy to join to the characters data as needed. Let’s do that, which requires little cleaning: removing the rows containing empty strings and renaming titles to title since each row now only contains a single title.

titles <- chars |> 
  unnest_wider(json) |> 
  select(id, titles) |> 
  unnest_longer(titles) |> 
  filter(titles != "") |> 
  rename(title = titles)
titles
#> # A tibble: 52 × 2
#>      id title                                               
#>   <int> <chr>                                               
#> 1  1022 Prince of Winterfell                                
#> 2  1022 Lord of the Iron Islands (by law of the green lands)
#> 3  1052 Acting Hand of the King (former)                    
#> 4  1052 Master of Coin (former)                             
#> 5  1074 Lord Captain of the Iron Fleet                      
#> 6  1074 Master of the Iron Victory                          
#> # ℹ 46 more rows
…
This gives us the status and the results. We’ll drop the status column since they’re all OK; in a real analysis, you’d also want to capture all the rows where status != "OK" and figure out what went wrong. results is an unnamed list, with either one or two elements (we’ll see why shortly) so we’ll unnest it into rows:

gmaps_cities |> 
  unnest_wider(json) |> 
  select(-status) |> 
  unnest_longer(results)
#> # A tibble: 7 × 2
#>   city       results         
#>   <chr>      <list>          
#> 1 Houston    <named list [5]>
#> 2 Washington <named list [5]>
#> 3 Washington <named list [5]>
#> 4 New York   <named list [5]>
#> 5 Chicago    <named list [5]>
#> 6 Arlington  <named list [5]>
#> # ℹ 1 more row

Now results is a named list, so we’ll use unnest_wider():

locations <- gmaps_cities |> 
  unnest_wider(json) |> 
  select(-status) |> 
  unnest_longer(results) |> 
  unnest_wider(results)
locations
#> # A tibble: 7 × 6
#>   city       address_components formatted_address   geometry        
#>   <chr>      <list>             <chr>               <list>          
#> 1 Houston    <list [4]>         Houston, TX, USA    <named list [4]>
#> 2 Washington <list [2]>         Washington, USA     <named list [4]>
#> 3 Washington <list [4]>         Washington, DC, USA <named list [4]>
#> 4 New York   <list [3]>         New York, NY, USA   <named list [4]>
#> 5 Chicago    <list [4]>         Chicago, IL, USA    <named list [4]>
#> 6 Arlington  <list [4]>         Arlington, TX, USA  <named list [4]>
#> # ℹ 1 more row
#> # ℹ 2 more variables: place_id <chr>, types <list>

Now we can see why two cities got two results: Washington matched both Washington state and Washington, DC, and Arlington matched Arlington, Virginia and Arlington, Texas.

There are a few different places we could go from here. We might want to determine the exact location of the match, which is stored in the geometry list-column:

locations |> 
  select(city, formatted_address, geometry) |> 
  unnest_wider(geometry)
#> # A tibble: 7 × 6
#>   city       formatted_address   bounds           location     location_type
#>   <chr>      <chr>               <list>           <list>       <chr>        
#> 1 Houston    Houston, TX, USA    <named list [2]> <named list> APPROXIMATE  
#> 2 Washington Washington, USA     <named list [2]> <named list> APPROXIMATE  
#> 3 Washington Washington, DC, USA <named list [2]> <named list> APPROXIMATE  
#> 4 New York   New York, NY, USA   <named list [2]> <named list> APPROXIMATE  
#> 5 Chicago    Chicago, IL, USA    <named list [2]> <named list> APPROXIMATE  
#> 6 Arlington  Arlington, TX, USA  <named list [2]> <named list> APPROXIMATE  
#> # ℹ 1 more row
#> # ℹ 1 more variable: viewport <list>

That gives us new bounds (a rectangular region) and location (a point). We can unnest location to see the latitude (lat) and longitude (lng):

locations |> 
  select(city, formatted_address, geometry) |> 
  unnest_wider(geometry) |> 
  unnest_wider(location)
#> # A tibble: 7 × 7
#>   city       formatted_address   bounds             lat    lng location_type
#>   <chr>      <chr>               <list>           <dbl>  <dbl> <chr>        
#> 1 Houston    Houston, TX, USA    <named list [2]>  29.8  -95.4 APPROXIMATE  
#> 2 Washington Washington, USA     <named list [2]>  47.8 -121.  APPROXIMATE  
#> 3 Washington Washington, DC, USA <named list [2]>  38.9  -77.0 APPROXIMATE  
#> 4 New York   New York, NY, USA   <named list [2]>  40.7  -74.0 APPROXIMATE  
#> 5 Chicago    Chicago, IL, USA    <named list [2]>  41.9  -87.6 APPROXIMATE  
#> 6 Arlington  Arlington, TX, USA  <named list [2]>  32.7  -97.1 APPROXIMATE  
#> # ℹ 1 more row
#> # ℹ 1 more variable: viewport <list>

Extracting the bounds requires a few more steps:

locations |> 
  select(city, formatted_address, geometry) |> 
  unnest_wider(geometry) |> 
  # focus on the variables of interest
  select(!location:viewport) |>
  unnest_wider(bounds)
#> # A tibble: 7 × 4
#>   city       formatted_address   northeast        southwest       
#>   <chr>      <chr>               <list>           <list>          
#> 1 Houston    Houston, TX, USA    <named list [2]> <named list [2]>
#> 2 Washington Washington, USA     <named list [2]> <named list [2]>
#> 3 Washington Washington, DC, USA <named list [2]> <named list [2]>
#> 4 New York   New York, NY, USA   <named list [2]> <named list [2]>
#> 5 Chicago    Chicago, IL, USA    <named list [2]> <named list [2]>
#> 6 Arlington  Arlington, TX, USA  <named list [2]> <named list [2]>
#> # ℹ 1 more row

We then rename southwest and northeast (the corners of the rectangle) so we can use names_sep to create short but evocative names:

locations |> 
  select(city, formatted_address, geometry) |> 
  unnest_wider(geometry) |> 
  select(!location:viewport) |>
  unnest_wider(bounds) |> 
  rename(ne = northeast, sw = southwest) |> 
  unnest_wider(c(ne, sw), names_sep = "_") 
#> # A tibble: 7 × 6
#>   city       formatted_address   ne_lat ne_lng sw_lat sw_lng
#>   <chr>      <chr>                <dbl>  <dbl>  <dbl>  <dbl>
#> 1 Houston    Houston, TX, USA      30.1  -95.0   29.5  -95.8
#> 2 Washington Washington, USA       49.0 -117.    45.5 -125. 
#> 3 Washington Washington, DC, USA   39.0  -76.9   38.8  -77.1
#> 4 New York   New York, NY, USA     40.9  -73.7   40.5  -74.3
#> 5 Chicago    Chicago, IL, USA      42.0  -87.5   41.6  -87.9
#> 6 Arlington  Arlington, TX, USA    32.8  -97.0   32.6  -97.2
#> # ℹ 1 more row
…
